{
	"oid": 1,
	"person": "admin@example.com",
	"language": "English",
	"title": "Example Feedback",
	"content": "This is an example feedback. Feel free to edit or delete it from the agent interface.",
	"total_rating": "4",
	"num_comments": "5",
	"num_ratings": "6",
	"category": "Suggestion",
	"labels": ["label1", "label2"]
}
